<?xml version="1.0" encoding="UTF-8" standalone="no"?>
<svg
    width="22.691122mm"
    height="21.919168mm"
    viewBox="0 0 22.691122 21.919168"
    version="1.1"
    xmlns="http://www.w3.org/2000/svg"
    xmlns:svg="http://www.w3.org/2000/svg">
        <path
            style="fill:#df222e;stroke-width:0.26"
            d="M 7.245803,19.950114 C 3.563663,18.782328 0.888247,15.668953 0.148461,11.690956 -0.472222,8.3534139 0.88754,4.555663 3.586338,2.0891132 5.275925,0.5449262 5.757689,0.5265142 4.219279,2.0649232 0.190088,6.0941149 -0.022354,12.392903 3.740937,16.247499 c 1.627259,1.666741 2.908157,2.371567 5.089988,2.800816 3.834669,0.754426 8.195945,-1.805079 9.21713,-5.409264 0.965494,-3.407623 0.924957,-3.344206 0.855708,-1.338678 -0.111064,3.216443 -1.881823,5.826691 -4.904743,7.230001 -1.85075,0.859162 -4.791382,1.041935 -6.753217,0.41974 z m 5.232403,-5.242034 c -0.69441,-0.69441 -0.899584,-1.119822 -0.899584,-1.865222 0,-1.385313 0.67041,-2.502328 1.780136,-2.9660014 1.241086,-0.5185577 2.436251,-0.280543 3.342828,0.6657174 1.954395,2.039949 0.545978,5.065089 -2.358158,5.065089 -0.7454,0 -1.170813,-0.205173 -1.865222,-0.899583 z" />
        <path
            style="fill:#25763d;stroke-width:0.26"
            d="M 6.336576,16.957441 C 5.854545,16.707512 4.973136,16.033677 4.377889,15.460031 -0.376152,10.878509 2.084597,2.5181262 8.809753,0.4028053 c 2.146665,-0.6752093 5.56623,-0.4808703 7.531369,0.4280189 2.993898,1.384696 5.387126,4.3798428 6.056657,7.5799667 0.161338,0.771147 0.293343,1.5390997 0.293343,1.7065631 0,0.587717 -0.439279,-0.1958394 -0.778626,-1.3888571 C 20.860203,5.029004 18.156542,2.3712532 14.489843,1.4318892 10.176458,0.3268503 5.535769,2.4676512 3.784283,6.3704829 3.12841,7.8319619 3.061563,8.2389299 3.162258,10.15743 c 0.161232,3.071849 1.329518,5.026684 4.160983,6.962367 0.06063,0.04145 0.06063,0.124122 0,0.183713 C 7.262611,17.3631 6.818607,17.20737 6.336576,16.957441 Z M 5.815148,15.194727 C 5.068452,14.67172 4.434873,13.459001 4.434873,12.552772 c 0,-1.491521 1.605761,-3.0305254 3.161979,-3.0305254 1.589077,0 2.923437,1.5156434 2.923437,3.3206114 0,0.7454 -0.205174,1.170812 -0.899583,1.865222 -0.749054,0.749052 -1.093391,0.899583 -2.057794,0.899583 -0.637019,0 -1.423512,-0.185822 -1.747764,-0.412936 z" />
        <path
            style="fill:#174e9e;stroke-width:0.26"
            d="m 8.0642943,21.66885 c -0.937659,-0.220793 -2.571088,-0.941505 -2.571088,-1.134432 0,-0.04771 0.625078,0.08167 1.389062,0.287503 0.872215,0.234993 2.238349,0.338503 3.6715777,0.27819 1.916475,-0.08065 2.558135,-0.231739 4.001183,-0.942149 5.582676,-2.748343 7.265876,-9.987509 3.355221,-14.430249 -2.167319,-2.4622038 -5.751605,-3.3864418 -8.9421967,-2.3058188 -0.926492,0.313794 -1.730759,0.5243031 -1.787263,0.4677981 -0.0565,-0.0565 0.522938,-0.4494041 1.287653,-0.8731111 1.262234,-0.699369 1.6407997,-1.00246 3.9226667,-1.001796 2.126954,6.08e-4 2.673533,0.328102 3.656865,0.852014 1.868096,0.9952991 3.584294,2.7851038 4.419523,4.6090777 0.650491,1.420541 0.756057,1.980019 0.760558,4.0307451 0.0047,2.125054 -0.08397,2.569792 -0.823778,4.133685 -1.42014,3.002058 -3.718837,5.028061 -6.690865,5.897129 C 12.165161,21.990169 9.6748873,22.0481 8.0642943,21.66885 Z M 9.5121793,9.2508809 c -2.705277,-1.649362 -1.538428,-5.5494667 1.6603157,-5.5494667 1.434711,0 2.859537,1.4013938 2.859537,2.8125107 0,1.338041 -0.412295,2.107035 -1.478108,2.756908 -1.076285,0.6562567 -1.941941,0.6505787 -3.0417447,-0.01995 z" />
</svg>
